…
```r
intensity_matrix = readRDS("../../results/flow_intensity_matrix.rds")
```

This is what the processed data looks like. Right now, we are only interesed in the fluorescent intensity values for CD14 (column 4).


```r
intensity_matrix
```

```
## # A tibble: 121 x 7
##    line_id genotype_id      flow_date   CD14  CD16 CD206 sample_id        
##    <chr>   <chr>            <date>     <dbl> <dbl> <dbl> <chr>            
##  1 aipt_2  HPSI0513i-aipt_2 2014-06-16 1.71  1.06  2.29  aipt_2_2014-06-16
##  2 aipt_2  HPSI0513i-aipt_2 2014-06-20 1.70  1.20  2.20  aipt_2_2014-06-20
##  3 auim_2  HPSI0613i-auim_2 2014-11-18 0.572 0.252 0.980 auim_2_2014-11-18
##  4 auim_2  HPSI0613i-auim_2 2014-11-21 1.16  0.466 1.74  auim_2_2014-11-21
##  5 babk_2  HPSI1213i-babk_2 2014-12-16 1.19  1.75  1.63  babk_2_2014-12-16
##  6 babk_2  HPSI1213i-babk_2 2015-11-27 0.886 2.01  0.565 babk_2_2015-11-27
##  7 bezi_1  HPSI0114i-bezi_1 2015-07-21 1.34  1.61  1.11  bezi_1_2015-07-21
##  8 bezi_1  HPSI0114i-bezi_1 2015-07-30 1.49  1.45  1.62  bezi_1_2015-07-30
##  9 bezi_1  HPSI0114i-bezi_1 2015-08-05 1.42  1.85  1.47  bezi_1_2015-08-05
## 10 bima_1  HPSI1113i-bima_1 2014-12-16 0.905 0.986 1.53  bima_1_2014-12-16
## # … with 111 more rows
```
…
