…
#Construct a matrix of intensity values
intensity_matrix = dplyr::select(flow_data, line_id, genotype_id, flow_date, protein_name, intensity) %>% 
  tidyr::spread(protein_name, intensity) %>%
  dplyr::mutate(sample_id = paste(line_id, as.character(flow_date), sep = "_"))
```

This is what the processed data looks like:

```r
intensity_matrix
```

```
## # A tibble: 121 x 7
##    line_id genotype_id      flow_date   CD14  CD16 CD206 sample_id        
##    <chr>   <chr>            <date>     <dbl> <dbl> <dbl> <chr>            
##  1 aipt_2  HPSI0513i-aipt_2 2014-06-16 1.71  1.06  2.29  aipt_2_2014-06-16
##  2 aipt_2  HPSI0513i-aipt_2 2014-06-20 1.70  1.20  2.20  aipt_2_2014-06-20
##  3 auim_2  HPSI0613i-auim_2 2014-11-18 0.572 0.252 0.980 auim_2_2014-11-18
##  4 auim_2  HPSI0613i-auim_2 2014-11-21 1.16  0.466 1.74  auim_2_2014-11-21
##  5 babk_2  HPSI1213i-babk_2 2014-12-16 1.19  1.75  1.63  babk_2_2014-12-16
##  6 babk_2  HPSI1213i-babk_2 2015-11-27 0.886 2.01  0.565 babk_2_2015-11-27
##  7 bezi_1  HPSI0114i-bezi_1 2015-07-21 1.34  1.61  1.11  bezi_1_2015-07-21
##  8 bezi_1  HPSI0114i-bezi_1 2015-07-30 1.49  1.45  1.62  bezi_1_2015-07-30
##  9 bezi_1  HPSI0114i-bezi_1 2015-08-05 1.42  1.85  1.47  bezi_1_2015-08-05
## 10 bima_1  HPSI1113i-bima_1 2014-12-16 0.905 0.986 1.53  bima_1_2014-12-16
## # … with 111 more rows
```
…
# Testing genotype effect using the linear mixed model

One of the main advantages of a linear mixed model is that we can include related samples into out analysis to increase statistical power.

# Unique donors

For comparison, let's first create a dataset in which each individual occurs only once. This dataset contains 97 samples:

```r
unique_df_genotype = dplyr::left_join(unique_donor, cd14_lead_variant, by = "genotype_id")
unique_df_genotype
```

```
## # A tibble: 97 x 8
##    line_id genotype_id   flow_date   CD14  CD16 CD206 sample_id    rs778587
##    <chr>   <chr>         <date>     <dbl> <dbl> <dbl> <chr>           <int>
##  1 aipt_2  HPSI0513i-ai… 2014-06-16 1.71  1.06  2.29  aipt_2_2014…        0
##  2 auim_2  HPSI0613i-au… 2014-11-18 0.572 0.252 0.980 auim_2_2014…        2
##  3 babk_2  HPSI1213i-ba… 2014-12-16 1.19  1.75  1.63  babk_2_2014…        2
##  4 bezi_1  HPSI0114i-be… 2015-07-21 1.34  1.61  1.11  bezi_1_2015…        1
##  5 bima_1  HPSI1113i-bi… 2014-12-16 0.905 0.986 1.53  bima_1_2014…        2
##  6 bubh_1  HPSI0314i-bu… 2015-04-13 1.42  2.33  1.27  bubh_1_2015…        1
##  7 bulb_1  HPSI0913i-bu… 2014-12-16 0.738 0.764 0.664 bulb_1_2014…        1
##  8 cehw_3  HPSI0513i-ce… 2014-11-18 1.23  1.94  1.44  cehw_3_2014…        2
##  9 cicb_3  HPSI0713i-ci… 2015-04-23 0.842 1.13  1.64  cicb_3_2015…        2
## 10 coio_2  HPSI0513i-co… 2014-11-18 1.18  0.681 1.30  coio_2_2014…        0
## # … with 87 more rows
```
…
```
## [1]           NA 1.618056e-14
```

## Repeated measurements from the same individual
One advantage of linear mixed models is that we can also use the full dataset containing 119 samples.

```r
flow_df_genotype
```

```
## # A tibble: 119 x 8
##    line_id genotype_id    flow_date  CD14  CD16 CD206 sample_id    rs778587
##    <chr>   <chr>          <fct>     <dbl> <dbl> <dbl> <chr>           <int>
##  1 aipt_2  HPSI0513i-aip… 2014-06-… 1.71  1.06  2.29  aipt_2_2014…        0
##  2 aipt_2  HPSI0513i-aip… 2014-06-… 1.70  1.20  2.20  aipt_2_2014…        0
##  3 auim_2  HPSI0613i-aui… 2014-11-… 0.572 0.252 0.980 auim_2_2014…        2
##  4 auim_2  HPSI0613i-aui… 2014-11-… 1.16  0.466 1.74  auim_2_2014…        2
##  5 babk_2  HPSI1213i-bab… 2014-12-… 1.19  1.75  1.63  babk_2_2014…        2
##  6 babk_2  HPSI1213i-bab… 2015-11-… 0.886 2.01  0.565 babk_2_2015…        2
##  7 bezi_1  HPSI0114i-bez… 2015-07-… 1.34  1.61  1.11  bezi_1_2015…        1
##  8 bezi_1  HPSI0114i-bez… 2015-07-… 1.49  1.45  1.62  bezi_1_2015…        1
##  9 bezi_1  HPSI0114i-bez… 2015-08-… 1.42  1.85  1.47  bezi_1_2015…        1
## 10 bima_1  HPSI1113i-bim… 2014-12-… 0.905 0.986 1.53  bima_1_2014…        2
## # … with 109 more rows
```
…
